// Copyright (C) 2007-2022  CEA/DEN, EDF R&D
//
// This library is free software; you can redistribute it and/or
// modify it under the terms of the GNU Lesser General Public
// License as published by the Free Software Foundation; either
// version 2.1 of the License, or (at your option) any later version.
//
// This library is distributed in the hope that it will be useful,
// but WITHOUT ANY WARRANTY; without even the implied warranty of
// MERCHANTABILITY or FITNESS FOR A PARTICULAR PURPOSE.  See the GNU
// Lesser General Public License for more details.
//
// You should have received a copy of the GNU Lesser General Public
// License along with this library; if not, write to the Free Software
// Foundation, Inc., 59 Temple Place, Suite 330, Boston, MA  02111-1307 USA
//
// See http://www.salome-platform.org/ or email : webmaster.salome@opencascade.com
//
// Author : InckA

%module PMML

%include std_vector.i
%include std_string.i


%template(ivec) std::vector<int>;
%template(dvec) std::vector<double>;
%template(svec) std::vector<std::string>;

%include "PMML.i"


%pythoncode %{
import os
__filename=os.environ.get('PYTHONSTARTUP')
if __filename and os.path.isfile(__filename):
  exec(compile(open(__filename).read(), __filename, 'exec'))
  pass
%}
