 485402.71 6369128.73       0.00
 485356.11 6369149.37       0.00
 485309.61 6369170.00       0.00
 485263.21 6369190.54       0.00
 485216.91 6369211.07       0.00
 485170.60 6369231.51       0.00
 485124.20 6369251.85       0.00
 485077.80 6369272.18       0.00
 485031.29 6369292.52       0.00
 484984.69 6369312.86       0.00
 484937.89 6369333.00       0.00
 484890.98 6369353.14       0.00
 484843.88 6369373.28       0.00
 484796.88 6369393.42       0.00
 484751.19 6369415.85       0.00
 484706.32 6369438.87       0.00
 484662.24 6369461.69       0.00
 484618.85 6369484.20       0.00
 484588.40 6369520.38       0.00
 484557.65 6369556.87       0.00
 484526.40 6369593.76       0.00
 484495.05 6369630.95       0.00
 484464.01 6369668.24       0.00
 484433.16 6369705.33       0.00
 484402.52 6369742.21       0.00
 484378.21 6369783.04       0.00
 484355.40 6369824.65       0.00
 484334.91 6369867.93       0.00
 484314.13 6369911.63       0.00
 484293.15 6369955.92       0.00
 484271.97 6370000.71       0.00
 484249.00 6370045.83       0.00
 484225.93 6370090.94       0.00
 484202.96 6370135.95       0.00
 484178.68 6370180.17       0.00
 484157.21 6370225.57       0.00
 484138.65 6370271.84       0.00
 484120.50 6370318.41       0.00
 484103.65 6370366.06       0.00
 484087.01 6370414.81       0.00
 484070.09 6370464.77       0.00
 484052.97 6370515.52       0.00
 484030.70 6370561.03       0.00
 484008.23 6370606.63       0.00
 483985.57 6370652.54       0.00
 483962.81 6370698.55       0.00
 483941.15 6370745.05       0.00
 483921.60 6370792.43       0.00
 483902.05 6370839.81       0.00
 483882.80 6370886.88       0.00
 483863.54 6370933.76       0.00
 483844.89 6370980.83       0.00
 483827.55 6371028.99       0.00
 483810.21 6371077.85       0.00
 483792.39 6371128.01       0.00
 483773.78 6371179.08       0.00
 483748.79 6371222.91       0.00
 483723.61 6371266.94       0.00
 483699.24 6371311.27       0.00
 483674.56 6371355.89       0.00
 483650.39 6371401.12       0.00
 483625.52 6371446.15       0.00
 483600.45 6371491.38       0.00
 483572.47 6371534.84       0.00
 483543.38 6371577.71       0.00
 483514.08 6371620.08       0.00
 483480.65 6371659.09       0.00
 483445.31 6371696.32       0.00
 483411.48 6371735.03       0.00
 483377.65 6371773.95       0.00
 483340.20 6371810.00       0.00
 483300.13 6371844.17       0.00
 483260.10 6371872.25       0.00
 483219.77 6371900.42       0.00
 483179.44 6371928.70       0.00
 483138.92 6371957.08       0.00
 483094.84 6371979.90       0.00
 483049.02 6371998.83       0.00
 483003.41 6372017.76       0.00
 482957.99 6372036.48       0.00
 482912.27 6372054.21       0.00
 482865.51 6372068.46       0.00
 482818.65 6372082.70       0.00
 482771.79 6372097.04       0.00
 482724.73 6372111.48       0.00
 482676.23 6372121.44       0.00
 482627.32 6372130.00       0.00
 482578.61 6372138.36       0.00
 482527.22 6372138.85       0.00
 482475.92 6372138.63       0.00
 482424.72 6372137.22       0.00
 482373.79 6372133.80       0.00
 482323.06 6372129.68       0.00
 482272.97 6372119.56       0.00
 482222.78 6372109.13       0.00
 482172.48 6372098.71       0.00
 482123.16 6372084.48       0.00
 482075.48 6372065.33       0.00
 482028.11 6372046.29       0.00
 481981.82 6372025.43       0.00
 481935.92 6372004.37       0.00
 481890.04 6371984.90       0.00
 481843.77 6371965.64       0.00
 481797.19 6371945.69       0.00
 481754.06 6371921.20       0.00
 481710.93 6371896.81       0.00
 481668.51 6371872.72       0.00
 481626.78 6371847.41       0.00
 481585.34 6371821.41       0.00
 481545.28 6371793.39       0.00
 481507.29 6371762.36       0.00
 481471.18 6371729.30       0.00
 481435.96 6371695.44       0.00
 481400.95 6371661.68       0.00
 481366.03 6371628.01       0.00
 481331.12 6371594.45       0.00
 481296.70 6371560.48       0.00
 481262.39 6371526.61       0.00
 481228.07 6371492.84       0.00
 481193.76 6371459.37       0.00
 481157.74 6371425.81       0.00
 481122.03 6371392.06       0.00
 481086.41 6371358.40       0.00
 481050.80 6371324.84       0.00
 481015.19 6371291.38       0.00
 480978.59 6371258.93       0.00
 480939.81 6371229.11       0.00
 480901.03 6371199.08       0.00
 480862.35 6371169.05       0.00
 480823.77 6371139.12       0.00
 480785.49 6371109.38       0.00
 480745.54 6371082.26       0.00
 480702.44 6371060.48       0.00
 480658.55 6371039.70       0.00
 480614.26 6371018.72       0.00
 480569.76 6370997.64       0.00
 480524.97 6370976.77       0.00
 480478.66 6370975.11       0.00
 480431.45 6370973.86       0.00
 480383.34 6370972.31       0.00
 480334.74 6370971.57       0.00
 480286.11 6370978.43       0.00
 480238.12 6370989.29       0.00
 480190.33 6371000.14       0.00
 480142.64 6371010.99       0.00
 480096.40 6371027.03       0.00
 480051.08 6371044.95       0.00
 480006.35 6371062.58       0.00
 479961.82 6371080.10       0.00
 479917.39 6371097.71       0.00
 479875.15 6371124.81       0.00
 479832.82 6371151.91       0.00
 479790.68 6371179.01       0.00
 479748.44 6371206.10       0.00
 479706.30 6371233.30       0.00
 479664.57 6371260.89       0.00
 479622.84 6371288.38       0.00
 479582.62 6371317.86       0.00
 479544.73 6371350.12       0.00
 479506.64 6371382.47       0.00
 479468.66 6371414.93       0.00
 479430.57 6371447.39       0.00
 479393.29 6371480.64       0.00
 479356.52 6371514.48       0.00
 479319.84 6371548.22       0.00
 479283.16 6371581.67       0.00
 479246.79 6371615.51       0.00
 479210.51 6371649.25       0.00
 479174.34 6371682.99       0.00
 479138.36 6371716.53       0.00
 479103.49 6371751.05       0.00
 479070.24 6371787.06       0.00
 479036.58 6371822.78       0.00
 479003.02 6371858.49       0.00
 478970.98 6371896.09       0.00
 478937.85 6371933.70       0.00
 478904.31 6371971.91       0.00
 478870.78 6372010.13       0.00
 478838.95 6372048.82       0.00
 478806.93 6372087.92       0.00
 478773.81 6372127.63       0.00
 478740.39 6372167.74       0.00
 478706.68 6372207.96       0.00
 478673.07 6372248.07       0.00
 478639.85 6372288.18       0.00
 478601.63 6372337.84       0.00
 478563.70 6372387.29       0.00
 478531.08 6372426.99       0.00
 478510.47 6372456.79       0.00
 478490.26 6372487.17       0.00
 478464.24 6372527.32       0.00
 478438.13 6372567.76       0.00
 478411.92 6372608.30       0.00
 478385.41 6372648.95       0.00
 478358.90 6372689.59       0.00
 478332.58 6372729.94       0.00
 478304.11 6372774.80       0.00
 478276.04 6372819.06       0.00
 478250.41 6372857.70       0.00
 478228.89 6372898.10       0.00
 478207.58 6372938.29       0.00
 478184.51 6372983.51       0.00
 478161.24 6373028.22       0.00
 478139.37 6373073.22       0.00
 478120.92 6373119.99       0.00
 478102.87 6373167.16       0.00
 478084.62 6373214.42       0.00
 478066.47 6373261.89       0.00
 478048.22 6373309.26       0.00
 478032.28 6373357.10       0.00
 478018.94 6373405.42       0.00
 478005.90 6373453.44       0.00
 477993.05 6373501.35       0.00
 477985.12 6373550.02       0.00
 477981.89 6373599.95       0.00
 477977.37 6373650.48       0.00
 477972.86 6373701.42       0.00
 477966.45 6373753.67       0.00
 477958.34 6373805.24       0.00
 477950.42 6373855.01       0.00
 477952.51 6373907.18       0.00
 477954.91 6373959.75       0.00
 477957.42 6374013.02       0.00
 477958.83 6374066.70       0.00
 477960.14 6374120.68       0.00
 477961.46 6374175.06       0.00
 477961.73 6374225.15       0.00
 477962.11 6374275.13       0.00
 477962.09 6374325.73       0.00
 477962.87 6374376.21       0.00
 477963.75 6374426.80       0.00
 477964.63 6374477.38       0.00
 477963.51 6374528.08       0.00
 477962.29 6374578.99       0.00
 477960.88 6374629.99       0.00
 477955.84 6374678.63       0.00
 477950.71 6374727.68       0.00
 477945.70 6374779.32       0.00
 477934.09 6374830.62       0.00
 477922.37 6374881.82       0.00
 477910.44 6374930.53       0.00
 477898.50 6374979.33       0.00
 477882.86 6375026.97       0.00
 477866.91 6375074.52       0.00
 477851.07 6375122.06       0.00
 477835.12 6375169.61       0.00
 477815.36 6375215.79       0.00
 477795.20 6375262.07       0.00
 477775.05 6375308.66       0.00
 477754.59 6375355.24       0.00
 477723.78 6375395.83       0.00
 477692.37 6375436.12       0.00
 477660.86 6375476.31       0.00
 477629.64 6375516.30       0.00
 477590.16 6375549.28       0.00
 477550.98 6375581.94       0.00
 477511.69 6375614.41       0.00
 477470.78 6375644.09       0.00
 477429.87 6375673.38       0.00
 477388.65 6375702.37       0.00
 477345.81 6375728.87       0.00
 477302.46 6375755.28       0.00
 477258.52 6375781.79       0.00
 477206.43 6375802.28       0.00
 477152.81 6375821.19       0.00
 477103.20 6375839.36       0.00
 477057.95 6375844.38       0.00
 477012.60 6375849.41       0.00
 476962.77 6375854.99       0.00
 476912.83 6375860.66       0.00
 476862.65 6375862.44       0.00
 476812.51 6375856.71       0.00
 476762.66 6375850.89       0.00
 476713.11 6375845.16       0.00
 476663.67 6375839.33       0.00
 476614.41 6375833.10       0.00
 476565.36 6375826.47       0.00
 476516.41 6375819.93       0.00
 476467.55 6375813.40       0.00
 476418.80 6375806.76       0.00
 476369.95 6375801.53       0.00
 476320.72 6375796.90       0.00
 476271.48 6375792.26       0.00
 476221.64 6375787.44       0.00
 476170.81 6375782.62       0.00
 476120.60 6375781.20       0.00
 476069.89 6375779.68       0.00
 476018.89 6375778.27       0.00
 475967.48 6375776.76       0.00
 475915.77 6375774.55       0.00
 475864.16 6375772.04       0.00
 475812.64 6375769.63       0.00
 475761.22 6375767.12       0.00
 475710.02 6375765.51       0.00
 475658.81 6375764.09       0.00
 475607.71 6375762.78       0.00
 475556.60 6375761.37       0.00
 475505.63 6375763.05       0.00
 475454.99 6375769.33       0.00
 475399.98 6375777.05       0.00
 475345.16 6375784.77       0.00
 475295.33 6375791.04       0.00
 475257.11 6375809.50       0.00
 475218.79 6375828.17       0.00
 475176.20 6375849.37       0.00
 475135.54 6375874.25       0.00
 475095.19 6375899.13       0.00
 475058.07 6375927.78       0.00
 475027.92 6375964.36       0.00
 474997.77 6376000.94       0.00
 474971.73 6376037.68       0.00
 474948.30 6376076.10       0.00
 474925.29 6376117.21       0.00
 474907.36 6376166.78       0.00
 474889.34 6376215.94       0.00
 474873.18 6376262.08       0.00
 474864.73 6376309.76       0.00
 474860.90 6376358.19       0.00
 474856.96 6376406.62       0.00
 474854.52 6376455.03       0.00
 474864.16 6376502.23       0.00
 474874.71 6376549.32       0.00
 474885.16 6376596.42       0.00
 474905.63 6376645.91       0.00
 474932.08 6376694.05       0.00
 474957.79 6376738.10       0.00
 474979.36 6376776.99       0.00
 475001.13 6376815.98       0.00
 475023.74 6376860.05       0.00
 475046.66 6376904.23       0.00
 475069.48 6376948.51       0.00
 475093.49 6376992.07       0.00
 475119.98 6377034.01       0.00
 475146.58 6377076.05       0.00
 475173.27 6377118.09       0.00
 475200.07 6377160.23       0.00
 475226.87 6377202.47       0.00
 475252.97 6377245.21       0.00
 475277.68 6377288.77       0.00
 475302.39 6377332.23       0.00
 475326.80 6377375.49       0.00
 475351.20 6377418.55       0.00
 475375.61 6377461.41       0.00
 475404.18 6377501.43       0.00
 475434.65 6377540.23       0.00
 475465.11 6377579.14       0.00
 475502.76 6377626.77       0.00
 475540.41 6377674.51       0.00
 475571.18 6377714.11       0.00
 475594.46 6377743.88       0.00
 475617.64 6377773.66       0.00
 475647.70 6377812.06       0.00
 475677.65 6377850.37       0.00
 475707.81 6377888.38       0.00
 475738.96 6377925.67       0.00
 475770.70 6377962.37       0.00
 475802.84 6377998.66       0.00
 475835.08 6378035.14       0.00
 475867.23 6378071.73       0.00
 475899.07 6378108.72       0.00
 475928.74 6378147.73       0.00
 475957.81 6378187.55       0.00
 475987.19 6378227.86       0.00
 476016.97 6378268.77       0.00
 476042.19 6378312.63       0.00
 476051.06 6378362.53       0.00
 476057.17 6378416.37       0.00
 476063.38 6378470.20       0.00
 476070.06 6378520.53       0.00
 476070.19 6378565.72       0.00
 476070.12 6378611.21       0.00
 476069.59 6378660.11       0.00
 476066.25 6378709.13       0.00
 476060.22 6378757.98       0.00
 476054.39 6378806.92       0.00
 476047.95 6378855.68       0.00
 476039.21 6378903.95       0.00
 476030.37 6378952.33       0.00
 476021.53 6379000.50       0.00
 476010.09 6379047.90       0.00
 476000.54 6379095.78       0.00
 475991.20 6379143.26       0.00
 475979.94 6379189.86       0.00
 475969.71 6379239.05       0.00
 475959.38 6379288.24       0.00
 475951.06 6379338.51       0.00
 475941.74 6379388.79       0.00
 475931.02 6379438.88       0.00
 475920.30 6379489.08       0.00
 475909.47 6379539.07       0.00
 475895.54 6379588.19       0.00
 475881.41 6379636.92       0.00
 475867.28 6379685.44       0.00
 475854.04 6379734.26       0.00
 475840.46 6379788.68       0.00
 475826.89 6379843.80       0.00
 475814.87 6379894.60       0.00
 475793.46 6379934.30       0.00
 475771.84 6379974.00       0.00
 475746.65 6380017.23       0.00
 475718.56 6380059.19       0.00
 475690.36 6380101.35       0.00
 475651.68 6380134.11       0.00
 475610.47 6380163.90       0.00
 475569.46 6380193.48       0.00
 475527.02 6380219.78       0.00
 475482.95 6380242.39       0.00
 475438.97 6380264.91       0.00
 475383.65 6380282.63       0.00
 475327.71 6380298.66       0.00
 475280.35 6380312.11       0.00
 475235.27 6380313.94       0.00
 475191.20 6380315.36       0.00
 475139.99 6380313.74       0.00
 475089.18 6380312.13       0.00
 475038.12 6380314.81       0.00
 474987.18 6380310.00       0.00
 474936.85 6380294.88       0.00
 474886.91 6380279.56       0.00
 474837.77 6380263.63       0.00
 474788.94 6380249.29       0.00
 474739.94 6380237.36       0.00
 474691.04 6380225.83       0.00
 474635.06 6380215.96       0.00
 474579.38 6380206.79       0.00
 474530.91 6380198.36       0.00
 474489.92 6380208.85       0.00
 474448.53 6380219.44       0.00
 474399.65 6380231.90       0.00
 474351.52 6380248.75       0.00
 474303.39 6380265.61       0.00
 474256.99 6380285.95       0.00
 474215.38 6380315.34       0.00
 474173.67 6380344.73       0.00
 474132.26 6380374.72       0.00
 474093.49 6380408.38       0.00
 474054.92 6380442.24       0.00
 474016.96 6380476.50       0.00
 473979.70 6380521.84       0.00
 473942.73 6380566.99       0.00
 473910.20 6380604.89       0.00
 473900.36 6380642.88       0.00
 473890.33 6380681.26       0.00
 473876.27 6380727.19       0.00
 473859.30 6380772.34       0.00
 473842.23 6380817.20       0.00
 473834.08 6380863.96       0.00
 473827.43 6380910.92       0.00
 473823.38 6380958.45       0.00
 473822.54 6381006.65       0.00
 473821.40 6381054.75       0.00
 473819.66 6381102.46       0.00
 473817.61 6381149.77       0.00
 473830.55 6381196.33       0.00
 473843.79 6381243.40       0.00
 473858.74 6381290.95       0.00
 473868.40 6381338.75       0.00
 473869.95 6381386.12       0.00
 473880.59 6381432.61       0.00
 473886.12 6381477.75       0.00
 473895.44 6381521.75       0.00
 473906.65 6381565.14       0.00
 473919.48 6381610.81       0.00
 473929.88 6381663.40       0.00
 473946.42 6381720.63       0.00
 473960.41 6381782.68       0.00
 473941.72 6381825.15       0.00
 473919.93 6381867.65       0.00
 473889.40 6381905.93       0.00
 473856.46 6381943.34       0.00
 473820.70 6381978.17       0.00
 473780.09 6382007.36       0.00
 473738.76 6382034.94       0.00
 473697.52 6382061.13       0.00
 473653.82 6382081.24       0.00
 473610.10 6382100.15       0.00
 473566.48 6382117.87       0.00
 473526.54 6382144.44       0.00
 473483.12 6382172.55       0.00
 473432.38 6382188.23       0.00
 473382.03 6382203.21       0.00
 473330.39 6382208.50       0.00
 473279.76 6382204.08       0.00
 473229.39 6382195.16       0.00
 473185.40 6382174.18       0.00
 473134.91 6382164.07       0.00
 473083.37 6382158.56       0.00
 473036.83 6382153.60       0.00
 472993.37 6382157.22       0.00
 472949.76 6382165.03       0.00
 472901.52 6382170.09       0.00
 472853.58 6382175.84       0.00
 472806.49 6382186.09       0.00
 472760.42 6382199.13       0.00
 472721.96 6382212.79       0.00
 472682.68 6382225.16       0.00
 472637.57 6382243.29       0.00
 472581.46 6382262.22       0.00
 472526.25 6382280.64       0.00
 472477.98 6382293.20       0.00
 472430.80 6382305.75       0.00
 472384.45 6382319.68       0.00
 472338.09 6382333.22       0.00
 472291.72 6382346.66       0.00
 472245.35 6382359.40       0.00
 472198.36 6382369.95       0.00
 472153.94 6382387.07       0.00
 472110.55 6382408.47       0.00
 472063.29 6382422.22       0.00
 472014.60 6382432.99       0.00
 471966.12 6382443.64       0.00
 471917.71 6382452.50       0.00
 471869.11 6382461.77       0.00
 471820.02 6382472.13       0.00
 471769.34 6382473.31       0.00
 471717.74 6382472.31       0.00
 471666.29 6382466.50       0.00
 471616.21 6382456.28       0.00
 471566.73 6382436.95       0.00
 471519.94 6382415.40       0.00
 471477.93 6382392.61       0.00
 471434.36 6382373.83       0.00
 471389.91 6382357.06       0.00
 471342.65 6382339.31       0.00
 471295.58 6382320.46       0.00
 471248.60 6382300.71       0.00
 471202.40 6382279.36       0.00
 471157.10 6382256.80       0.00
 471113.57 6382232.32       0.00
 471069.07 6382210.35       0.00
 471020.69 6382190.71       0.00
 470971.74 6382173.48       0.00
 470925.80 6382157.82       0.00
 470878.04 6382140.68       0.00
 470830.50 6382124.84       0.00
 470779.69 6382112.03       0.00
 470728.32 6382103.82       0.00
 470676.96 6382096.41       0.00
 470619.15 6382093.26       0.00
 470560.96 6382093.52       0.00
 470508.38 6382094.92       0.00
 470463.92 6382097.64       0.00
 470419.56 6382100.76       0.00
 470369.73 6382107.14       0.00
 470320.75 6382118.80       0.00
 470272.08 6382131.17       0.00
 470223.72 6382144.72       0.00
 470175.97 6382159.78       0.00
 470130.80 6382182.50       0.00
 470085.33 6382206.33       0.00
 470035.69 6382222.00       0.00
 469983.96 6382237.99       0.00
 469932.72 6382253.88       0.00
 469883.87 6382268.54       0.00
 469839.34 6382285.56       0.00
 469794.11 6382302.09       0.00
 469746.48 6382319.54       0.00
 469698.77 6382337.50       0.00
 469650.64 6382355.15       0.00
 469601.80 6382370.81       0.00
 469553.27 6382387.07       0.00
 469505.04 6382403.93       0.00
 469456.19 6382419.09       0.00
 469407.35 6382434.06       0.00
 469358.50 6382448.92       0.00
 469309.75 6382463.88       0.00
 469260.80 6382478.75       0.00
 469211.76 6382493.91       0.00
 469162.71 6382508.98       0.00
 469113.87 6382524.14       0.00
 469063.73 6382539.72       0.00
 469014.08 6382554.89       0.00
 468966.83 6382569.14       0.00
 468922.94 6382590.05       0.00
 468879.14 6382610.47       0.00
 468833.65 6382630.70       0.00
 468788.85 6382650.92       0.00
 468744.45 6382670.94       0.00
 468700.25 6382690.86       0.00
 468659.81 6382717.24       0.00
 468618.97 6382743.83       0.00
 468575.36 6382772.93       0.00
 468531.04 6382801.55       0.00
 468489.51 6382828.44       0.00
 468454.52 6382860.17       0.00
 468420.54 6382893.49       0.00
 468383.59 6382929.43       0.00
 468345.95 6382965.29       0.00
 468308.30 6383001.24       0.00
 468272.77 6383039.17       0.00
 468237.24 6383077.20       0.00
 468198.37 6383121.27       0.00
 468159.50 6383165.43       0.00
 468123.77 6383203.56       0.00
 468101.81 6383238.06       0.00
 468080.85 6383273.26       0.00
 468054.33 6383313.10       0.00
 468033.24 6383355.09       0.00
 468016.96 6383398.24       0.00
 468006.58 6383442.23       0.00
 468000.11 6383486.98       0.00
 468005.66 6383534.82       0.00
 468021.41 6383581.86       0.00
 468035.17 6383629.62       0.00
 468032.13 6383677.64       0.00
 468028.28 6383725.16       0.00
 468027.05 6383773.76       0.00
 468036.20 6383821.37       0.00
 468045.06 6383869.27       0.00
 468042.53 6383918.39       0.00
 468039.79 6383967.20       0.00
 468044.45 6384014.55       0.00
 468052.79 6384061.06       0.00
 468062.03 6384107.06       0.00
 468081.94 6384150.46       0.00
 468101.38 6384196.46       0.00
 468121.01 6384242.77       0.00
 468141.84 6384287.26       0.00
 468165.88 6384323.42       0.00
 468190.23 6384360.88       0.00
 468223.06 6384396.46       0.00
 468259.19 6384432.00       0.00
 468287.10 6384475.33       0.00
 468309.65 6384522.50       0.00
 468331.29 6384569.29       0.00
 468352.23 6384615.28       0.00
 468371.97 6384661.68       0.00
 468391.42 6384709.68       0.00
 468408.47 6384767.40       0.00
 468419.96 6384829.48       0.00
 468433.71 6384887.24       0.00
 468423.01 6384928.73       0.00
 468411.91 6384970.43       0.00
 468400.98 6385018.92       0.00
 468386.34 6385066.55       0.00
 468368.19 6385113.61       0.00
 468350.45 6385160.87       0.00
 468331.40 6385207.44       0.00
 468308.83 6385252.45       0.00
 468285.86 6385297.16       0.00
 468262.60 6385342.07       0.00
 468236.53 6385386.01       0.00
 468209.36 6385430.36       0.00
 468181.79 6385474.81       0.00
 468146.96 6385512.54       0.00
 468104.61 6385548.54       0.00
 468064.66 6385584.11       0.00
 468028.96 6385614.74       0.00
 468015.73 6385652.96       0.00
 468002.11 6385692.48       0.00
 467981.53 6385735.97       0.00
 467961.27 6385780.95       0.00
 467939.50 6385825.65       0.00
 467914.61 6385868.08       0.00
 467892.82 6385910.88       0.00
 467873.54 6385953.95       0.00
 467855.56 6385997.42       0.00
 467840.29 6386042.45       0.00
 467825.53 6386087.18       0.00
 467807.85 6386131.14       0.00
 467787.98 6386175.42       0.00
 467766.30 6386218.92       0.00
 467745.52 6386262.61       0.00
 467726.85 6386306.28       0.00
 467708.47 6386349.94       0.00
 467689.89 6386393.71       0.00
 467668.60 6386436.00       0.00
 467643.90 6386476.73       0.00
 467619.60 6386518.75       0.00
 467595.33 6386562.57       0.00
 467562.91 6386601.97       0.00
 467521.04 6386635.37       0.00
 467478.28 6386669.77       0.00
 467430.63 6386684.22       0.00
 467382.87 6386697.97       0.00
 467335.32 6386712.03       0.00
 467287.24 6386723.38       0.00
 467238.20 6386728.85       0.00
 467189.36 6386733.32       0.00
 467140.41 6386737.68       0.00
 467091.45 6386740.95       0.00
 467042.27 6386741.32       0.00
 466993.14 6386737.59       0.00
 466944.01 6386733.06       0.00
 466895.26 6386725.93       0.00
 466846.59 6386717.70       0.00
 466797.82 6386709.47       0.00
 466750.69 6386694.62       0.00
 466704.43 6386677.17       0.00
 466660.58 6386660.49       0.00
 466617.03 6386643.31       0.00
 466571.76 6386624.75       0.00
 466526.91 6386598.09       0.00
 466484.44 6386568.10       0.00
 466443.97 6386538.89       0.00
 466404.29 6386508.68       0.00
 466371.54 6386471.70       0.00
 466342.76 6386431.59       0.00
 466314.98 6386391.26       0.00
 466287.41 6386351.14       0.00
 466261.42 6386309.99       0.00
 466239.60 6386266.11       0.00
 466217.48 6386221.54       0.00
 466198.24 6386175.43       0.00
 466182.49 6386127.99       0.00
 466176.32 6386078.56       0.00
 466174.15 6386029.19       0.00
 466170.17 6385979.14       0.00
 466165.70 6385929.80       0.00
 466162.54 6385882.64       0.00
 466160.57 6385832.97       0.00
 466160.19 6385783.28       0.00
 466158.90 6385732.01       0.00
 466157.21 6385680.93       0.00
 466155.33 6385630.06       0.00
 466153.14 6385579.30       0.00
 466143.07 6385529.40       0.00
 466132.79 6385479.21       0.00
 466122.51 6385429.02       0.00
 466111.41 6385376.14       0.00
 466099.31 6385323.87       0.00
 466086.54 6385275.20       0.00
 466063.47 6385235.23       0.00
 466038.79 6385195.48       0.00
 466013.18 6385152.03       0.00
 465988.46 6385107.58       0.00
 465963.84 6385062.72       0.00
 465939.51 6385017.97       0.00
 465914.30 6384974.02       0.00
 465888.88 6384930.27       0.00
 465863.57 6384886.52       0.00
 465836.76 6384843.69       0.00
 465809.36 6384801.16       0.00
 465782.06 6384758.63       0.00
 465754.46 6384716.40       0.00
 465726.17 6384674.68       0.00
 465694.30 6384635.70       0.00
 465662.14 6384596.91       0.00
 465626.88 6384558.76       0.00
 465591.92 6384520.60       0.00
 465558.97 6384483.53       0.00
 465523.11 6384455.18       0.00
 465487.15 6384427.13       0.00
 465449.09 6384399.10       0.00
 465410.73 6384371.77       0.00
 465367.86 6384352.79       0.00
 465324.59 6384334.30       0.00
 465280.05 6384318.53       0.00
 465235.03 6384304.27       0.00
 465188.75 6384295.71       0.00
 465133.62 6384291.14       0.00
 465078.28 6384296.57       0.00
 465031.35 6384302.82       0.00
 465000.19 6384326.51       0.00
 464971.67 6384354.98       0.00
 464939.21 6384389.68       0.00
 464916.44 6384434.29       0.00
 464896.82 6384483.37       0.00
 464874.99 6384531.97       0.00
 464857.35 6384580.53       0.00
 464841.60 6384626.57       0.00
 464827.45 6384673.29       0.00
 464807.31 6384720.27       0.00
 464786.46 6384766.86       0.00
 464767.02 6384814.14       0.00
 464748.68 6384861.80       0.00
 464729.63 6384909.08       0.00
 464709.58 6384955.66       0.00
 464689.94 6385002.44       0.00
 464671.80 6385049.90       0.00
 464655.85 6385096.54       0.00
 464640.60 6385143.78       0.00
 464625.68 6385193.11       0.00
 464612.06 6385242.43       0.00
 464599.44 6385292.34       0.00
 464591.92 6385342.70       0.00
 464583.91 6385393.57       0.00
 464579.11 6385445.20       0.00
 464574.21 6385497.24       0.00
 464570.51 6385549.56       0.00
 464563.41 6385601.42       0.00
 464558.89 6385640.95       0.00
 464554.16 6385679.39       0.00
 464546.74 6385728.95       0.00
 464534.15 6385792.25       0.00
 464524.45 6385855.23       0.00
 464521.94 6385905.95       0.00
 464523.32 6385955.92       0.00
 464530.19 6386005.54       0.00
 464535.87 6386055.48       0.00
 464540.75 6386105.52       0.00
 464549.71 6386153.82       0.00
 464568.65 6386200.53       0.00
 464588.71 6386248.93       0.00
 464613.09 6386288.79       0.00
 464640.86 6386327.61       0.00
 464671.31 6386365.11       0.00
 464702.07 6386403.71       0.00
 464733.62 6386440.60       0.00
 464767.66 6386476.56       0.00
 464801.59 6386512.83       0.00
 464835.53 6386548.89       0.00
 464868.28 6386585.97       0.00
 464902.32 6386622.14       0.00
 464934.77 6386659.62       0.00
 464967.03 6386697.60       0.00
 464999.29 6386736.18       0.00
 465033.52 6386792.04       0.00
 465064.87 6386850.03       0.00
 465089.39 6386894.98       0.00
 465102.52 6386929.55       0.00
 465117.15 6386964.10       0.00
 465119.36 6387017.07       0.00
 465117.98 6387071.67       0.00
 465112.42 6387127.71       0.00
 465081.15 6387171.80       0.00
 465063.54 6387222.65       0.00
 465019.70 6387259.57       0.00
 464976.52 6387291.47       0.00
 464928.99 6387307.72       0.00
 464882.02 6387309.77       0.00
 464839.26 6387302.68       0.00
 464799.91 6387296.06       0.00
 464753.95 6387289.60       0.00
 464707.70 6387282.65       0.00
 464657.14 6387275.04       0.00
 464606.65 6387264.92       0.00
 464556.46 6387253.80       0.00
 464509.88 6387233.96       0.00
 464464.00 6387214.20       0.00
 464416.18 6387200.86       0.00
 464367.58 6387189.13       0.00
 464318.68 6387177.20       0.00
 464269.57 6387164.98       0.00
 464221.33 6387148.84       0.00
 464173.57 6387131.50       0.00
 464125.53 6387114.87       0.00
 464076.12 6387102.54       0.00
 464027.78 6387087.41       0.00
 463982.29 6387065.95       0.00
 463937.20 6387044.99       0.00
 463890.26 6387029.44       0.00
 463840.44 6387015.72       0.00
 463790.52 6387001.61       0.00
 463742.20 6386988.67       0.00
 463694.95 6386982.13       0.00
 463647.79 6386974.48       0.00
 463598.92 6386966.35       0.00
 463550.55 6386957.82       0.00
 463501.86 6386957.88       0.00
 463452.90 6386960.55       0.00
 463404.28 6386967.92       0.00
 463355.47 6386976.08       0.00
 463307.08 6386985.55       0.00
 463255.56 6387003.34       0.00
 463205.99 6387026.21       0.00
 463160.89 6387046.23       0.00
 463123.04 6387071.39       0.00
 463086.21 6387098.54       0.00
 463044.91 6387128.73       0.00
 463003.51 6387159.22       0.00
 462963.43 6387191.70       0.00
 462923.46 6387224.27       0.00
 462884.49 6387257.84       0.00
 462844.13 6387292.52       0.00
 462804.17 6387327.39       0.00
 462765.50 6387360.46       0.00
 462730.32 6387392.38       0.00
 462696.24 6387425.60       0.00
 462661.79 6387461.53       0.00
 462626.74 6387496.95       0.00
 462593.81 6387534.16       0.00
 462563.90 6387574.34       0.00
 462530.47 6387611.85       0.00
 462496.03 6387648.87       0.00
 462461.40 6387685.80       0.00
 462425.45 6387721.53       0.00
 462389.40 6387757.07       0.00
 462352.84 6387792.11       0.00
 462314.16 6387824.78       0.00
 462275.49 6387857.24       0.00
 462228.70 6387899.18       0.00
 462181.50 6387940.02       0.00
 462142.20 6387970.29       0.00
 462103.56 6387985.76       0.00
 462065.62 6388001.02       0.00
 462020.07 6388025.95       0.00
 461974.41 6388049.58       0.00
 461928.84 6388073.12       0.00
 461883.38 6388096.75       0.00
 461835.68 6388115.90       0.00
 461787.66 6388134.16       0.00
 461739.55 6388152.42       0.00
 461690.93 6388169.68       0.00
 461636.99 6388185.29       0.00
 461582.85 6388200.91       0.00
 461532.81 6388215.69       0.00
 461488.75 6388229.51       0.00
 461444.49 6388243.33       0.00
 461395.45 6388258.40       0.00
 461346.11 6388273.47       0.00
 461296.77 6388288.74       0.00
 461247.52 6388303.91       0.00
 461198.78 6388319.67       0.00
 461151.37 6388337.82       0.00
 461105.79 6388359.56       0.00
 461061.33 6388383.38       0.00
 461020.42 6388412.66       0.00
 460980.65 6388446.24       0.00
 460940.89 6388479.91       0.00
 460902.11 6388512.68       0.00
 460877.98 6388550.80       0.00
 460853.76 6388589.02       0.00
 460828.74 6388628.55       0.00
 460807.55 6388670.45       0.00
 460790.08 6388714.11       0.00
 460776.41 6388759.53       0.00
 460763.96 6388805.63       0.00
 460751.51 6388851.74       0.00
 460740.28 6388900.74       0.00
 460730.06 6388949.93       0.00
 460719.71 6388996.41       0.00
 460713.15 6389042.07       0.00
 460706.59 6389087.82       0.00
 460700.16 6389136.57       0.00
 460693.83 6389185.62       0.00
 460687.51 6389235.07       0.00
 460681.19 6389284.61       0.00
 460674.27 6389334.27       0.00
 460660.43 6389382.39       0.00
 460646.79 6389430.21       0.00
 460633.16 6389477.83       0.00
 460619.52 6389525.35       0.00
 460605.98 6389572.97       0.00
 460592.24 6389620.79       0.00
 460578.21 6389668.71       0.00
 460558.15 6389714.49       0.00
 460538.09 6389760.07       0.00
 460518.14 6389805.45       0.00
 460498.18 6389850.73       0.00
 460478.32 6389895.91       0.00
 460458.45 6389940.99       0.00
 460438.59 6389986.17       0.00
 460418.13 6390031.06       0.00
 460397.67 6390075.94       0.00
 460377.30 6390120.83       0.00
 460357.14 6390165.81       0.00
 460336.79 6390212.00       0.00
 460316.44 6390258.48       0.00
 460296.29 6390304.26       0.00
 460276.41 6390348.14       0.00
 460256.34 6390392.12       0.00
 460235.68 6390437.31       0.00
 460215.63 6390483.09       0.00
 460195.47 6390528.97       0.00
 460173.61 6390574.07       0.00
 460152.35 6390619.37       0.00
 460131.20 6390664.56       0.00
 460110.03 6390709.65       0.00
 460089.18 6390755.04       0.00
 460067.31 6390799.74       0.00
 460044.24 6390843.85       0.00
 460020.47 6390887.57       0.00
 459996.70 6390931.48       0.00
 459970.92 6390974.62       0.00
 459942.33 6391016.69       0.00
 459912.14 6391058.67       0.00
 459878.94 6391098.97       0.00
 459839.48 6391133.25       0.00
 459796.34 6391159.35       0.00
 459750.24 6391179.29       0.00
 459702.64 6391198.75       0.00
 459652.56 6391209.22       0.00
 459602.77 6391219.70       0.00
 459554.77 6391228.66       0.00
 459506.46 6391236.32       0.00
 459458.34 6391244.08       0.00
 459409.69 6391248.15       0.00
 459361.24 6391252.02       0.00
 459315.10 6391256.96       0.00
 459269.37 6391262.30       0.00
 459222.22 6391266.85       0.00
