   100.000      0.000    100.000
   100.400      0.000     99.000
   100.800      0.000     98.000
   101.200      0.000     97.000
   101.600      0.000     96.000
   102.000      0.000     95.000
   102.400      0.000     94.000
   102.800      0.000     93.000
   103.200      0.000     92.000
   103.600      0.000     91.000
   104.000      0.000     90.000
   104.400      0.000     90.250
   104.800      0.000     90.500
   105.200      0.000     90.750
   105.600      0.000     91.000
   106.000      0.000     91.250
   106.400      0.000     91.500
   106.800      0.000     91.750
   107.200      0.000     92.000
   107.600      0.000     92.250
   108.000      0.000     92.500
   108.400      0.000     92.750
   108.800      0.000     93.000
   109.200      0.000     93.250
   109.600      0.000     93.500
   110.000      0.000     93.750
   110.400      0.000     94.000
   110.800      0.000     94.250
   111.200      0.000     94.500
   111.600      0.000     94.750
   112.000      0.000     95.000
   112.400      0.000     95.250
   112.800      0.000     95.500
   113.200      0.000     95.750
   113.600      0.000     96.000
   114.000      0.000     96.250
   114.400      0.000     96.500
   114.800      0.000     96.750
   115.200      0.000     97.000
   115.600      0.000     97.250
   116.000      0.000     97.500
   116.400      0.000     97.750
   116.800      0.000     98.000
   117.200      0.000     98.250
   117.600      0.000     98.500
   118.000      0.000     98.750
   118.400      0.000     99.000
   118.800      0.000     99.250
   119.200      0.000     99.500
   119.600      0.000     99.750
   120.000      0.000    100.000

    98.769     15.643    100.000
    99.164     15.706     99.154
    99.559     15.769     98.308
    99.954     15.831     97.462
   100.349     15.894     96.615
   100.744     15.956     95.769
   101.139     16.019     94.923
   101.534     16.081     94.077
   101.929     16.144     93.231
   102.325     16.207     92.385
   102.720     16.269     91.538
   103.115     16.332     90.692
   103.510     16.394     89.846
   103.905     16.457     89.000
   104.300     16.519     89.297
   104.695     16.582     89.595
   105.090     16.645     89.892
   105.485     16.707     90.189
   105.880     16.770     90.486
   106.275     16.832     90.784
   106.670     16.895     91.081
   107.065     16.957     91.378
   107.460     17.020     91.676
   107.856     17.083     91.973
   108.251     17.145     92.270
   108.646     17.208     92.568
   109.041     17.270     92.865
   109.436     17.333     93.162
   109.831     17.396     93.459
   110.226     17.458     93.757
   110.621     17.521     94.054
   111.016     17.583     94.351
   111.411     17.646     94.649
   111.806     17.708     94.946
   112.201     17.771     95.243
   112.596     17.834     95.541
   112.992     17.896     95.838
   113.387     17.959     96.135
   113.782     18.021     96.432
   114.177     18.084     96.730
   114.572     18.146     97.027
   114.967     18.209     97.324
   115.362     18.272     97.622
   115.757     18.334     97.919
   116.152     18.397     98.216
   116.547     18.459     98.514
   116.942     18.522     98.811
   117.337     18.584     99.108
   117.732     18.647     99.405
   118.128     18.710     99.703
   118.523     18.772    100.000

    95.106     30.902    100.000
    95.486     31.025     99.250
    95.866     31.149     98.500
    96.247     31.273     97.750
    96.627     31.396     97.000
    97.008     31.520     96.250
    97.388     31.643     95.500
    97.769     31.767     94.750
    98.149     31.891     94.000
    98.529     32.014     93.250
    98.910     32.138     92.500
    99.290     32.261     91.750
    99.671     32.385     91.000
   100.051     32.509     90.250
   100.432     32.632     89.500
   100.812     32.756     88.750
   101.192     32.879     88.000
   101.573     33.003     88.353
   101.953     33.127     88.706
   102.334     33.250     89.059
   102.714     33.374     89.412
   103.095     33.497     89.765
   103.475     33.621     90.118
   103.855     33.745     90.471
   104.236     33.868     90.824
   104.616     33.992     91.176
   104.997     34.115     91.529
   105.377     34.239     91.882
   105.757     34.363     92.235
   106.138     34.486     92.588
   106.518     34.610     92.941
   106.899     34.734     93.294
   107.279     34.857     93.647
   107.660     34.981     94.000
   108.040     35.104     94.353
   108.420     35.228     94.706
   108.801     35.352     95.059
   109.181     35.475     95.412
   109.562     35.599     95.765
   109.942     35.722     96.118
   110.323     35.846     96.471
   110.703     35.970     96.824
   111.083     36.093     97.176
   111.464     36.217     97.529
   111.844     36.340     97.882
   112.225     36.464     98.235
   112.605     36.588     98.588
   112.986     36.711     98.941
   113.366     36.835     99.294
   113.746     36.958     99.647
   114.127     37.082    100.000

    89.101     45.399    100.000
    89.457     45.581     99.316
    89.813     45.762     98.632
    90.170     45.944     97.947
    90.526     46.125     97.263
    90.883     46.307     96.579
    91.239     46.489     95.895
    91.595     46.670     95.211
    91.952     46.852     94.526
    92.308     47.033     93.842
    92.665     47.215     93.158
    93.021     47.397     92.474
    93.377     47.578     91.789
    93.734     47.760     91.105
    94.090     47.941     90.421
    94.447     48.123     89.737
    94.803     48.305     89.053
    95.159     48.486     88.368
    95.516     48.668     87.684
    95.872     48.849     87.000
    96.229     49.031     87.419
    96.585     49.213     87.839
    96.942     49.394     88.258
    97.298     49.576     88.677
    97.654     49.757     89.097
    98.011     49.939     89.516
    98.367     50.121     89.935
    98.724     50.302     90.355
    99.080     50.484     90.774
    99.436     50.665     91.194
    99.793     50.847     91.613
   100.149     51.029     92.032
   100.506     51.210     92.452
   100.862     51.392     92.871
   101.218     51.573     93.290
   101.575     51.755     93.710
   101.931     51.937     94.129
   102.288     52.118     94.548
   102.644     52.300     94.968
   103.000     52.481     95.387
   103.357     52.663     95.806
   103.713     52.844     96.226
   104.070     53.026     96.645
   104.426     53.208     97.065
   104.782     53.389     97.484
   105.139     53.571     97.903
   105.495     53.752     98.323
   105.852     53.934     98.742
   106.208     54.116     99.161
   106.564     54.297     99.581
   106.921     54.479    100.000

    80.902     58.779    100.000
    81.225     59.014     99.364
    81.549     59.249     98.727
    81.873     59.484     98.091
    82.196     59.719     97.455
    82.520     59.954     96.818
    82.843     60.189     96.182
    83.167     60.424     95.545
    83.491     60.659     94.909
    83.814     60.895     94.273
    84.138     61.130     93.636
    84.461     61.365     93.000
    84.785     61.600     92.364
    85.109     61.835     91.727
    85.432     62.070     91.091
    85.756     62.305     90.455
    86.079     62.540     89.818
    86.403     62.775     89.182
    86.727     63.011     88.545
    87.050     63.246     87.909
    87.374     63.481     87.273
    87.697     63.716     86.636
    88.021     63.951     86.000
    88.345     64.186     86.500
    88.668     64.421     87.000
    88.992     64.656     87.500
    89.315     64.891     88.000
    89.639     65.127     88.500
    89.963     65.362     89.000
    90.286     65.597     89.500
    90.610     65.832     90.000
    90.934     66.067     90.500
    91.257     66.302     91.000
    91.581     66.537     91.500
    91.904     66.772     92.000
    92.228     67.008     92.500
    92.552     67.243     93.000
    92.875     67.478     93.500
    93.199     67.713     94.000
    93.522     67.948     94.500
    93.846     68.183     95.000
    94.170     68.418     95.500
    94.493     68.653     96.000
    94.817     68.888     96.500
    95.140     69.124     97.000
    95.464     69.359     97.500
    95.788     69.594     98.000
    96.111     69.829     98.500
    96.435     70.064     99.000
    96.758     70.299     99.500
    97.082     70.534    100.000

    70.711     70.711    100.000
    70.994     70.994     99.400
    71.276     71.276     98.800
    71.559     71.559     98.200
    71.842     71.842     97.600
    72.125     72.125     97.000
    72.408     72.408     96.400
    72.691     72.691     95.800
    72.973     72.973     95.200
    73.256     73.256     94.600
    73.539     73.539     94.000
    73.822     73.822     93.400
    74.105     74.105     92.800
    74.388     74.388     92.200
    74.670     74.670     91.600
    74.953     74.953     91.000
    75.236     75.236     90.400
    75.519     75.519     89.800
    75.802     75.802     89.200
    76.085     76.085     88.600
    76.368     76.368     88.000
    76.650     76.650     87.400
    76.933     76.933     86.800
    77.216     77.216     86.200
    77.499     77.499     85.600
    77.782     77.782     85.000
    78.065     78.065     85.600
    78.347     78.347     86.200
    78.630     78.630     86.800
    78.913     78.913     87.400
    79.196     79.196     88.000
    79.479     79.479     88.600
    79.762     79.762     89.200
    80.044     80.044     89.800
    80.327     80.327     90.400
    80.610     80.610     91.000
    80.893     80.893     91.600
    81.176     81.176     92.200
    81.459     81.459     92.800
    81.742     81.742     93.400
    82.024     82.024     94.000
    82.307     82.307     94.600
    82.590     82.590     95.200
    82.873     82.873     95.800
    83.156     83.156     96.400
    83.439     83.439     97.000
    83.721     83.721     97.600
    84.004     84.004     98.200
    84.287     84.287     98.800
    84.570     84.570     99.400
    84.853     84.853    100.000

    58.779     80.902    100.000
    59.014     81.225     99.429
    59.249     81.549     98.857
    59.484     81.873     98.286
    59.719     82.196     97.714
    59.954     82.520     97.143
    60.189     82.843     96.571
    60.424     83.167     96.000
    60.659     83.491     95.429
    60.895     83.814     94.857
    61.130     84.138     94.286
    61.365     84.461     93.714
    61.600     84.785     93.143
    61.835     85.109     92.571
    62.070     85.432     92.000
    62.305     85.756     91.429
    62.540     86.079     90.857
    62.775     86.403     90.286
    63.011     86.727     89.714
    63.246     87.050     89.143
    63.481     87.374     88.571
    63.716     87.697     88.000
    63.951     88.021     87.429
    64.186     88.345     86.857
    64.421     88.668     86.286
    64.656     88.992     85.714
    64.891     89.315     85.143
    65.127     89.639     84.571
    65.362     89.963     84.000
    65.597     90.286     84.727
    65.832     90.610     85.455
    66.067     90.934     86.182
    66.302     91.257     86.909
    66.537     91.581     87.636
    66.772     91.904     88.364
    67.008     92.228     89.091
    67.243     92.552     89.818
    67.478     92.875     90.545
    67.713     93.199     91.273
    67.948     93.522     92.000
    68.183     93.846     92.727
    68.418     94.170     93.455
    68.653     94.493     94.182
    68.888     94.817     94.909
    69.124     95.140     95.636
    69.359     95.464     96.364
    69.594     95.788     97.091
    69.829     96.111     97.818
    70.064     96.435     98.545
    70.299     96.758     99.273
    70.534     97.082    100.000

    45.399     89.101    100.000
    45.581     89.457     99.452
    45.762     89.813     98.903
    45.944     90.170     98.355
    46.125     90.526     97.806
    46.307     90.883     97.258
    46.489     91.239     96.710
    46.670     91.595     96.161
    46.852     91.952     95.613
    47.033     92.308     95.065
    47.215     92.665     94.516
    47.397     93.021     93.968
    47.578     93.377     93.419
    47.760     93.734     92.871
    47.941     94.090     92.323
    48.123     94.447     91.774
    48.305     94.803     91.226
    48.486     95.159     90.677
    48.668     95.516     90.129
    48.849     95.872     89.581
    49.031     96.229     89.032
    49.213     96.585     88.484
    49.394     96.942     87.935
    49.576     97.298     87.387
    49.757     97.654     86.839
    49.939     98.011     86.290
    50.121     98.367     85.742
    50.302     98.724     85.194
    50.484     99.080     84.645
    50.665     99.436     84.097
    50.847     99.793     83.548
    51.029    100.149     83.000
    51.210    100.506     83.895
    51.392    100.862     84.789
    51.573    101.218     85.684
    51.755    101.575     86.579
    51.937    101.931     87.474
    52.118    102.288     88.368
    52.300    102.644     89.263
    52.481    103.000     90.158
    52.663    103.357     91.053
    52.844    103.713     91.947
    53.026    104.070     92.842
    53.208    104.426     93.737
    53.389    104.782     94.632
    53.571    105.139     95.526
    53.752    105.495     96.421
    53.934    105.852     97.316
    54.116    106.208     98.211
    54.297    106.564     99.105
    54.479    106.921    100.000

    30.902     95.106    100.000
    31.025     95.486     99.471
    31.149     95.866     98.941
    31.273     96.247     98.412
    31.396     96.627     97.882
    31.520     97.008     97.353
    31.643     97.388     96.824
    31.767     97.769     96.294
    31.891     98.149     95.765
    32.014     98.529     95.235
    32.138     98.910     94.706
    32.261     99.290     94.176
    32.385     99.671     93.647
    32.509    100.051     93.118
    32.632    100.432     92.588
    32.756    100.812     92.059
    32.879    101.192     91.529
    33.003    101.573     91.000
    33.127    101.953     90.471
    33.250    102.334     89.941
    33.374    102.714     89.412
    33.497    103.095     88.882
    33.621    103.475     88.353
    33.745    103.855     87.824
    33.868    104.236     87.294
    33.992    104.616     86.765
    34.115    104.997     86.235
    34.239    105.377     85.706
    34.363    105.757     85.176
    34.486    106.138     84.647
    34.610    106.518     84.118
    34.734    106.899     83.588
    34.857    107.279     83.059
    34.981    107.660     82.529
    35.104    108.040     82.000
    35.228    108.420     83.125
    35.352    108.801     84.250
    35.475    109.181     85.375
    35.599    109.562     86.500
    35.722    109.942     87.625
    35.846    110.323     88.750
    35.970    110.703     89.875
    36.093    111.083     91.000
    36.217    111.464     92.125
    36.340    111.844     93.250
    36.464    112.225     94.375
    36.588    112.605     95.500
    36.711    112.986     96.625
    36.835    113.366     97.750
    36.958    113.746     98.875
    37.082    114.127    100.000

    15.643     98.769    100.000
    15.706     99.164     99.486
    15.769     99.559     98.973
    15.831     99.954     98.459
    15.894    100.349     97.946
    15.956    100.744     97.432
    16.019    101.139     96.919
    16.081    101.534     96.405
    16.144    101.929     95.892
    16.207    102.325     95.378
    16.269    102.720     94.865
    16.332    103.115     94.351
    16.394    103.510     93.838
    16.457    103.905     93.324
    16.519    104.300     92.811
    16.582    104.695     92.297
    16.645    105.090     91.784
    16.707    105.485     91.270
    16.770    105.880     90.757
    16.832    106.275     90.243
    16.895    106.670     89.730
    16.957    107.065     89.216
    17.020    107.460     88.703
    17.083    107.856     88.189
    17.145    108.251     87.676
    17.208    108.646     87.162
    17.270    109.041     86.649
    17.333    109.436     86.135
    17.396    109.831     85.622
    17.458    110.226     85.108
    17.521    110.621     84.595
    17.583    111.016     84.081
    17.646    111.411     83.568
    17.708    111.806     83.054
    17.771    112.201     82.541
    17.834    112.596     82.027
    17.896    112.992     81.514
    17.959    113.387     81.000
    18.021    113.782     82.462
    18.084    114.177     83.923
    18.146    114.572     85.385
    18.209    114.967     86.846
    18.272    115.362     88.308
    18.334    115.757     89.769
    18.397    116.152     91.231
    18.459    116.547     92.692
    18.522    116.942     94.154
    18.584    117.337     95.615
    18.647    117.732     97.077
    18.710    118.128     98.538
    18.772    118.523    100.000

     0.000    100.000    100.000
     0.000    100.400     99.500
     0.000    100.800     99.000
     0.000    101.200     98.500
     0.000    101.600     98.000
     0.000    102.000     97.500
     0.000    102.400     97.000
     0.000    102.800     96.500
     0.000    103.200     96.000
     0.000    103.600     95.500
     0.000    104.000     95.000
     0.000    104.400     94.500
     0.000    104.800     94.000
     0.000    105.200     93.500
     0.000    105.600     93.000
     0.000    106.000     92.500
     0.000    106.400     92.000
     0.000    106.800     91.500
     0.000    107.200     91.000
     0.000    107.600     90.500
     0.000    108.000     90.000
     0.000    108.400     89.500
     0.000    108.800     89.000
     0.000    109.200     88.500
     0.000    109.600     88.000
     0.000    110.000     87.500
     0.000    110.400     87.000
     0.000    110.800     86.500
     0.000    111.200     86.000
     0.000    111.600     85.500
     0.000    112.000     85.000
     0.000    112.400     84.500
     0.000    112.800     84.000
     0.000    113.200     83.500
     0.000    113.600     83.000
     0.000    114.000     82.500
     0.000    114.400     82.000
     0.000    114.800     81.500
     0.000    115.200     81.000
     0.000    115.600     80.500
     0.000    116.000     80.000
     0.000    116.400     82.000
     0.000    116.800     84.000
     0.000    117.200     86.000
     0.000    117.600     88.000
     0.000    118.000     90.000
     0.000    118.400     92.000
     0.000    118.800     94.000
     0.000    119.200     96.000
     0.000    119.600     98.000
     0.000    120.000    100.000