Estimation par filtrage d'une variable constante
------------------------------------------------
  Observations bruitées acquises sur 50 pas de temps

  État analysé à l'observation finale : [-0.37725236]

  Variance a posteriori finale : [[0.00033921]]

