// Copyright (C) 2007-2022  CEA/DEN, EDF R&D
//
// This library is free software; you can redistribute it and/or
// modify it under the terms of the GNU Lesser General Public
// License as published by the Free Software Foundation; either
// version 2.1 of the License, or (at your option) any later version.
//
// This library is distributed in the hope that it will be useful,
// but WITHOUT ANY WARRANTY; without even the implied warranty of
// MERCHANTABILITY or FITNESS FOR A PARTICULAR PURPOSE.  See the GNU
// Lesser General Public License for more details.
//
// You should have received a copy of the GNU Lesser General Public
// License along with this library; if not, write to the Free Software
// Foundation, Inc., 59 Temple Place, Suite 330, Boston, MA  02111-1307 USA
//
// See http://www.salome-platform.org/ or email : webmaster.salome@opencascade.com
//
// Author : Anthony Geay (CEA/DEN)

%module MEDCalculator

%include std_vector.i
%include std_string.i

%include "MEDLoaderCommon.i"

%{
#include "MEDCalculatorBrowserLiteStruct.hxx"
#include "MEDCalculatorBrowserField.hxx"
#include "MEDCalculatorDBField.hxx"
#include "MEDCalculatorTypemaps.i"

using namespace MEDCoupling;
using namespace INTERP_KERNEL;
%}

%typemap(out) MEDCoupling::MEDCalculatorDBField*
{
  $result=convertMEDCalculatorDBField($1,$owner);
}

%newobject MEDCoupling::MEDCalculatorDBField::operator+;
%newobject MEDCoupling::MEDCalculatorDBField::operator-;
%newobject MEDCoupling::MEDCalculatorDBField::operator*;
%newobject MEDCoupling::MEDCalculatorDBField::operator/;
%newobject MEDCoupling::MEDCalculatorDBFieldReal::__radd__;
%newobject MEDCoupling::MEDCalculatorDBFieldReal::__rsub__;
%newobject MEDCoupling::MEDCalculatorDBFieldReal::__rmul__;
%newobject MEDCoupling::MEDCalculatorDBFieldReal::__rdiv__;
%newobject MEDCoupling::MEDCalculatorDBFieldReal::__getitem__;
%newobject MEDCoupling::MEDCalculatorDBFieldReal::__setitem__;
%newobject MEDCoupling::MEDCalculatorDBFieldReal::operator();
%newobject MEDCoupling::MEDCalculatorDBFieldReal::buildCstFieldFromThis;
%newobject MEDCoupling::MEDCalculatorDBFieldReal::dot;
%newobject MEDCoupling::MEDCalculatorDBFieldReal::operator^;
%newobject MEDCoupling::MEDCalculatorDBFieldReal::crossProduct;
%newobject MEDCoupling::MEDCalculatorDBFieldReal::doublyContractedProduct;
%newobject MEDCoupling::MEDCalculatorDBFieldReal::determinant;
%newobject MEDCoupling::MEDCalculatorDBFieldReal::eigenValues;
%newobject MEDCoupling::MEDCalculatorDBFieldReal::eigenVectors;
%newobject MEDCoupling::MEDCalculatorDBFieldReal::inverse;
%newobject MEDCoupling::MEDCalculatorDBFieldReal::trace;
%newobject MEDCoupling::MEDCalculatorDBFieldReal::deviator;
%newobject MEDCoupling::MEDCalculatorDBFieldReal::magnitude;

%feature("unref") MEDCalculatorDBField "$this->decrRef();"

namespace MEDCoupling
{
  class MEDCalculatorBrowserLiteStruct
  {
  public :
    MEDCalculatorBrowserLiteStruct(const char *);
    const MEDCalculatorBrowserField& getField(int) const;
  };

  class MEDCalculatorDBField : public RefCountObject
    {
    public:
      virtual MEDCalculatorDBField *operator+(const MEDCalculatorDBField& other) const throw(INTERP_KERNEL::Exception);
      MEDCalculatorDBField *operator+(double val) const throw(INTERP_KERNEL::Exception);
      virtual MEDCalculatorDBField *operator-(const MEDCalculatorDBField& other) const throw(INTERP_KERNEL::Exception);
      MEDCalculatorDBField *operator-(double val) const throw(INTERP_KERNEL::Exception);
      virtual MEDCalculatorDBField *operator*(const MEDCalculatorDBField& other) const throw(INTERP_KERNEL::Exception);
      MEDCalculatorDBField *operator*(double val) const throw(INTERP_KERNEL::Exception);
      virtual MEDCalculatorDBField *operator/(const MEDCalculatorDBField& other) const throw(INTERP_KERNEL::Exception);
      MEDCalculatorDBField *operator/(double val) const throw(INTERP_KERNEL::Exception);
      virtual bool isEqual(const MEDCalculatorDBField& other, double precM, double precF) const;
    };

  class MEDCalculatorDBFieldReal : public MEDCalculatorDBField
  {
  public:
    MEDCalculatorDBFieldReal(const MEDCalculatorBrowserField& ls);
    ~MEDCalculatorDBFieldReal();
    MEDCalculatorDBFieldReal *buildCstFieldFromThis(double val) const;
    MEDCoupling::TypeOfField getType() const;
    void fetchData() const throw(INTERP_KERNEL::Exception);
    int getNumberOfSteps() const;
    int getNumberOfFetchedSteps() const;
    int getNumberOfComponents() const;
    void setName(const char *name);
    void setDescription(const char *descr);
    std::string getInfoOnComponent(int i) const throw(INTERP_KERNEL::Exception);
    void setInfoOnComponent(int i, const char *info) throw(INTERP_KERNEL::Exception);
    void write(const char *fName, bool writeFromScratch) const throw(INTERP_KERNEL::Exception);
    void display() const throw(INTERP_KERNEL::Exception);
    void applyFunc(const char *func) throw(INTERP_KERNEL::Exception);
    MEDCalculatorDBField *operator^(const MEDCalculatorDBFieldReal& other) const throw(INTERP_KERNEL::Exception);
    MEDCalculatorDBField *dot(const MEDCalculatorDBFieldReal& other) const throw(INTERP_KERNEL::Exception);
    MEDCalculatorDBField *crossProduct(const MEDCalculatorDBFieldReal& other) const throw(INTERP_KERNEL::Exception);
    MEDCalculatorDBField *doublyContractedProduct() const throw(INTERP_KERNEL::Exception);
    MEDCalculatorDBField *determinant() const throw(INTERP_KERNEL::Exception);
    MEDCalculatorDBField *eigenValues() const throw(INTERP_KERNEL::Exception);
    MEDCalculatorDBField *eigenVectors() const throw(INTERP_KERNEL::Exception);
    MEDCalculatorDBField *inverse() const throw(INTERP_KERNEL::Exception);
    MEDCalculatorDBField *trace() const throw(INTERP_KERNEL::Exception);
    MEDCalculatorDBField *deviator() const throw(INTERP_KERNEL::Exception);
    MEDCalculatorDBField *magnitude() const throw(INTERP_KERNEL::Exception);
    %extend
       {
         MEDCalculatorDBField *__radd__(double val)
         {
           MEDCalculatorDBFieldCst tmp(val);
           return tmp+(*self);
         }

         MEDCalculatorDBField *__rsub__(double val)
         {
           MEDCalculatorDBFieldCst tmp(val);
           return tmp-(*self);
         }

         MEDCalculatorDBField *__rmul__(double val)
         {
           MEDCalculatorDBFieldCst tmp(val);
           return tmp*(*self);
         }

         MEDCalculatorDBField *__rdiv__(double val)
         {
           MEDCalculatorDBFieldCst tmp(val);
           return tmp/(*self);
         }

         MEDCalculatorDBFieldReal *__getitem__(PyObject *obj) throw(INTERP_KERNEL::Exception)
         {
           if(!PyTuple_Check(obj))
             throw INTERP_KERNEL::Exception("Unexpected type found : Tuple expected ! Should never happen !");
           int sz=PyTuple_Size(obj);
           if(sz!=3)
             throw INTERP_KERNEL::Exception("Unexpected nb of element in slice : 3 expected !\n1st is for time, 2nd for geometrical entities and 3rd for components of field !");
           MEDCalculatorDBRangeSelection tr,pr,cr;
           PyObject *obj0=PyTuple_GetItem(obj,0);
           convertPyObjToRS2(obj0,tr,"for 1st tuple element for time");
           PyObject *obj1=PyTuple_GetItem(obj,1);
           convertPyObjToRS2(obj1,pr,"for 2nd tuple element for geometrical entities");
           PyObject *obj2=PyTuple_GetItem(obj,2);
           convertPyObjToRS2(obj2,cr,"for 3rd tuple element for components of field");
           return self->operator()(tr,pr,cr);
         }

         MEDCalculatorDBFieldReal *__setitem__(PyObject *obj, PyObject *val) throw(INTERP_KERNEL::Exception)
         {
           MEDCalculatorDBRangeSelection tr,pr,cr;
           if(!PyTuple_Check(obj))
             {
               const char msg[]="Unexpected type found : Tuple expected or [:] !";
               if(!PySlice_Check(obj))
                 throw INTERP_KERNEL::Exception(msg);
               Py_ssize_t strt,stp,step;
               PySlice_GetIndices(obj,std::numeric_limits<int>::max(),&strt,&stp,&step);
               if(strt!=0 || stp!=std::numeric_limits<int>::max() || step!=1)
                 throw INTERP_KERNEL::Exception(msg);
               tr.setAll(); pr.setAll(); cr.setAll();
             }
           else
             {
               int sz=PyTuple_Size(obj);
               if(sz!=3)
                 throw INTERP_KERNEL::Exception("Unexpected nb of element in slice : 3 expected !\n1st is for time, 2nd for geometrical entities and 3rd for components of field !");
               PyObject *obj0=PyTuple_GetItem(obj,0);
               convertPyObjToRS2(obj0,tr,"for 1st tuple element for time");
               PyObject *obj1=PyTuple_GetItem(obj,1);
               convertPyObjToRS2(obj1,pr,"for 2nd tuple element for geometrical entities");
               PyObject *obj2=PyTuple_GetItem(obj,2);
               convertPyObjToRS2(obj2,cr,"for 3rd tuple element for components of field");
             }
           MCAuto<MEDCalculatorDBFieldReal> ret=self->operator()(tr,pr,cr);
           if(PyLong_Check(val))
             {
               (*ret)=double(PyLong_AS_LONG(val));
               ret->incrRef();
               return ret;
             }
           if(PyFloat_Check(val))
             {
               (*ret)=PyFloat_AS_DOUBLE(val);
               ret->incrRef();
               return ret;
             }
           void *argp;
           int status=SWIG_ConvertPtr(val,&argp,SWIGTYPE_p_MEDCoupling__MEDCalculatorDBFieldReal,0|0);
           if(!SWIG_IsOK(status))
             {
               throw INTERP_KERNEL::Exception("For setting only float, int or DBFieldReal supported !");
             }
          const MEDCoupling::MEDCalculatorDBFieldReal *arg=reinterpret_cast< const MEDCoupling::MEDCalculatorDBFieldReal * >(argp);
          (*ret)=*arg;
          ret->incrRef();
          return ret;
         }

         MEDCalculatorDBFieldReal *operator()(PyObject *t, PyObject *p, PyObject *c) throw(INTERP_KERNEL::Exception)
         {
           MEDCalculatorDBRangeSelection tr,pr,cr;
           convertPyObjToRS(t,tr);
           convertPyObjToRS(p,pr);
           convertPyObjToRS(c,cr);
           return self->operator()(tr,pr,cr);
         }

         const MEDCalculatorDBFieldReal& assign(const MEDCalculatorDBFieldReal& other) throw(INTERP_KERNEL::Exception)
         {
           (*self)=other;
           return *self;
         }

         const MEDCalculatorDBFieldReal& assign(const MEDCalculatorDBFieldReal& other, const char *name) throw(INTERP_KERNEL::Exception)
         {
           (*self)=other;
           self->setName(name);
           return *self;
         }

         const MEDCalculatorDBFieldReal& assign(double val) throw(INTERP_KERNEL::Exception)
         {
           (*self)=val;
           return *self;
         }

         const MEDCalculatorDBFieldReal& assign(double val, const char *name) throw(INTERP_KERNEL::Exception)
         {
           (*self)=val;
           self->setName(name);
           return *self;
         }

         const MEDCalculatorDBFieldReal& assign(int val) throw(INTERP_KERNEL::Exception)
         {
           (*self)=(double) val;
           return *self;
         }

         const MEDCalculatorDBFieldReal& assign(int val, const char *name) throw(INTERP_KERNEL::Exception)
         {
           (*self)=(double) val;
           self->setName(name);
           return *self;
         }

         PyObject *getFields() const throw(INTERP_KERNEL::Exception)
         {
           std::vector<MEDCouplingFieldDouble *> r=self->getFields();
           PyObject *ret = PyList_New(r.size());
           for(unsigned int i=0;i<r.size();i++)
             {
               MEDCouplingFieldDouble *tmp=r[i];
               PyList_SetItem(ret,i,SWIG_NewPointerObj(SWIG_as_voidptr(tmp),SWIGTYPE_p_MEDCoupling__MEDCouplingFieldDouble, SWIG_POINTER_OWN | 0 ));
             }
           return ret;
         }

         PyObject *getValues() const throw(INTERP_KERNEL::Exception)
         {
           std::vector<MEDCouplingFieldDouble *> r=self->getFields();
           PyObject *ret = PyList_New(r.size());
           for(unsigned int i=0;i<r.size();i++)
             {
               MEDCouplingFieldDouble *tmp=r[i];
               const double *valtmp=tmp->getArray()->getConstPointer();
               int nbvals=tmp->getNumberOfValues();
               PyObject *ret2=PyList_New(nbvals);
               for(int j=0;j<nbvals;j++)
                 PyList_SetItem(ret2,j,PyFloat_FromDouble(valtmp[j]));
               PyList_SetItem(ret,i,ret2);
               tmp->decrRef();
             }
           return ret;
         }

         std::string __str__() const
         {
           return self->simpleRepr();
         }
       }
  };

  class MEDCalculatorDBFieldCst : public MEDCalculatorDBField
  {
  public:
    MEDCalculatorDBFieldCst(double val);
    MEDCalculatorDBFieldCst(int val);
    %extend
    {
      std::string __str__() const
        {
          std::ostringstream oss; oss << self->getValue();
          return oss.str();
        }
    }
  };
}

%pythoncode %{
def MEDCouplingDataArrayDoubleIadd(self,*args):
    import _MEDCalculator
    return _MEDCalculator.DataArrayDouble____iadd___(self, self, *args)
def MEDCouplingDataArrayDoubleIsub(self,*args):
    import _MEDCalculator
    return _MEDCalculator.DataArrayDouble____isub___(self, self, *args)
def MEDCouplingDataArrayDoubleImul(self,*args):
    import _MEDCalculator
    return _MEDCalculator.DataArrayDouble____imul___(self, self, *args)
def MEDCouplingDataArrayDoubleIdiv(self,*args):
    import _MEDCalculator
    return _MEDCalculator.DataArrayDouble____idiv___(self, self, *args)
def MEDCouplingDataArrayDoubleIpow(self,*args):
    import _MEDCalculator
    return _MEDCalculator.DataArrayDouble____ipow___(self, self, *args)
def MEDCouplingDataArrayDoubleTupleIadd(self,*args):
    import _MEDCalculator
    return _MEDCalculator.DataArrayDoubleTuple____iadd___(self, self, *args)
def MEDCouplingDataArrayDoubleTupleIsub(self,*args):
    import _MEDCalculator
    return _MEDCalculator.DataArrayDoubleTuple____isub___(self, self, *args)
def MEDCouplingDataArrayDoubleTupleImul(self,*args):
    import _MEDCalculator
    return _MEDCalculator.DataArrayDoubleTuple____imul___(self, self, *args)
def MEDCouplingDataArrayDoubleTupleIdiv(self,*args):
    import _MEDCalculator
    return _MEDCalculator.DataArrayDoubleTuple____idiv___(self, self, *args)
def MEDCouplingFieldDoubleIadd(self,*args):
    import _MEDCalculator
    return _MEDCalculator.MEDCouplingFieldDouble____iadd___(self, self, *args)
def MEDCouplingFieldDoubleIsub(self,*args):
    import _MEDCalculator
    return _MEDCalculator.MEDCouplingFieldDouble____isub___(self, self, *args)
def MEDCouplingFieldDoubleImul(self,*args):
    import _MEDCalculator
    return _MEDCalculator.MEDCouplingFieldDouble____imul___(self, self, *args)
def MEDCouplingFieldDoubleIdiv(self,*args):
    import _MEDCalculator
    return _MEDCalculator.MEDCouplingFieldDouble____idiv___(self, self, *args)
def MEDCouplingFieldDoubleIpow(self,*args):
    import _MEDCalculator
    return _MEDCalculator.MEDCouplingFieldDouble____ipow___(self, self, *args)
def MEDCouplingDataArrayIntIadd(self,*args):
    import _MEDCalculator
    return _MEDCalculator.DataArrayInt____iadd___(self, self, *args)
def MEDCouplingDataArrayIntIsub(self,*args):
    import _MEDCalculator
    return _MEDCalculator.DataArrayInt____isub___(self, self, *args)
def MEDCouplingDataArrayIntImul(self,*args):
    import _MEDCalculator
    return _MEDCalculator.DataArrayInt____imul___(self, self, *args)
def MEDCouplingDataArrayIntIdiv(self,*args):
    import _MEDCalculator
    return _MEDCalculator.DataArrayInt____idiv___(self, self, *args)
def MEDCouplingDataArrayIntImod(self,*args):
    import _MEDCalculator
    return _MEDCalculator.DataArrayInt____imod___(self, self, *args)
def MEDCouplingDataArrayIntIpow(self,*args):
    import _MEDCalculator
    return _MEDCalculator.DataArrayInt____ipow___(self, self, *args)
def MEDCouplingDataArrayIntTupleIadd(self,*args):
    import _MEDCalculator
    return _MEDCalculator.DataArrayIntTuple____iadd___(self, self, *args)
def MEDCouplingDataArrayIntTupleIsub(self,*args):
    import _MEDCalculator
    return _MEDCalculator.DataArrayIntTuple____isub___(self, self, *args)
def MEDCouplingDataArrayIntTupleImul(self,*args):
    import _MEDCalculator
    return _MEDCalculator.DataArrayIntTuple____imul___(self, self, *args)
def MEDCouplingDataArrayIntTupleIdiv(self,*args):
    import _MEDCalculator
    return _MEDCalculator.DataArrayIntTuple____idiv___(self, self, *args)
def MEDCouplingDataArrayIntTupleImod(self,*args):
    import _MEDCalculator
    return _MEDCalculator.DataArrayIntTuple____imod___(self, self, *args)
def MEDCouplingDenseMatrixIadd(self,*args):
    import _MEDCalculator
    return _MEDCalculator.DenseMatrix____iadd___(self, self, *args)
def MEDCouplingDenseMatrixIsub(self,*args):
    import _MEDCalculator
    return _MEDCalculator.DenseMatrix____isub___(self, self, *args)
%}

%include "MEDCouplingFinalize.i"

%pythoncode %{
MEDCalculatorDBFieldReal.__rtruediv__ = MEDCalculatorDBFieldReal.__rdiv__
def MEDCouplingMEDFileUMeshReduce(self):
  return MEDCouplingStdReduceFunct,(MEDFileUMesh,((),(self.__getstate__()),))
MEDFileUMesh.__reduce__=MEDCouplingMEDFileUMeshReduce
del MEDCouplingMEDFileUMeshReduce
%}
