Estimation of a constant variable by filtering
----------------------------------------------
  Noisy measurements acquired on 50 time steps

  Analyzed state at current observation: [0.]
  Analyzed state at current observation: [-0.41804504]
  Analyzed state at current observation: [-0.3114053]
  Analyzed state at current observation: [-0.31191336]
  Analyzed state at current observation: [-0.32761493]
  Analyzed state at current observation: [-0.33597167]
  Analyzed state at current observation: [-0.35629573]
  Analyzed state at current observation: [-0.36840289]
  Analyzed state at current observation: [-0.37392713]
  Analyzed state at current observation: [-0.36331937]
  Analyzed state at current observation: [-0.35750362]
  Analyzed state at current observation: [-0.37963052]
  Analyzed state at current observation: [-0.37117993]
  Analyzed state at current observation: [-0.36732985]
  Analyzed state at current observation: [-0.37148382]
  Analyzed state at current observation: [-0.36798059]
  Analyzed state at current observation: [-0.37371077]
  Analyzed state at current observation: [-0.3661228]
  Analyzed state at current observation: [-0.36777529]
  Analyzed state at current observation: [-0.37681677]
  Analyzed state at current observation: [-0.37007654]
  Analyzed state at current observation: [-0.37974517]
  Analyzed state at current observation: [-0.37964703]
  Analyzed state at current observation: [-0.37514278]
  Analyzed state at current observation: [-0.38143128]
  Analyzed state at current observation: [-0.38790654]
  Analyzed state at current observation: [-0.38880008]
  Analyzed state at current observation: [-0.38393577]
  Analyzed state at current observation: [-0.3831028]
  Analyzed state at current observation: [-0.37680097]
  Analyzed state at current observation: [-0.37891813]
  Analyzed state at current observation: [-0.38147782]
  Analyzed state at current observation: [-0.37981569]
  Analyzed state at current observation: [-0.38274266]
  Analyzed state at current observation: [-0.38418507]
  Analyzed state at current observation: [-0.38923054]
  Analyzed state at current observation: [-0.38400006]
  Analyzed state at current observation: [-0.38562502]
  Analyzed state at current observation: [-0.3840503]
  Analyzed state at current observation: [-0.38775222]
  Analyzed state at current observation: [-0.37700787]
  Analyzed state at current observation: [-0.37328191]
  Analyzed state at current observation: [-0.38024181]
  Analyzed state at current observation: [-0.3815806]
  Analyzed state at current observation: [-0.38392063]
  Analyzed state at current observation: [-0.38539266]
  Analyzed state at current observation: [-0.37856929]
  Analyzed state at current observation: [-0.37744505]
  Analyzed state at current observation: [-0.37154554]
  Analyzed state at current observation: [-0.37405773]
  Analyzed state at current observation: [-0.37725236]

  Final a posteriori variance: [[0.00033921]]

