Estimation of a constant variable by filtering
----------------------------------------------
  Noisy measurements acquired on 50 time steps

  Analyzed state at final observation: [-0.37725236]

  Final a posteriori variance: [[0.00033921]]

