================================================================================
ADAO Study report
================================================================================

  - AlgorithmParameters command has been set with values:
        Algorithm = '3DVAR'

  - Background command has been set with values:
        Vector = [0, 1, 2]


